{
	"info": {
		"_postman_id": "50d6a2c4-5d14-4d11-bf24-e51646e10ea6",
		"name": "Wish List",
		"schema": "https://schema.getpostman.com/json/collection/v2.1.0/collection.json"
	},
	"item": [
		{
			"name": "Get List",
			"event": [
				{
					"listen": "test",
					"script": {
						"exec": [
							"pm.test(\"Content-Type is present\", function () {",
							"    pm.response.to.have.header(\"Content-Type\");",
							"});",
							"",
							"const jsonData = pm.response.json();",
							"",
							"const schema = {",
							"    type: \"object\",",
							"    properties: {",
							"        data: {",
							"            type: \"array\",",
							"            items: {",
							"                type: \"object\",",
							"                properties: {",
							"                    id: {",
							"                        type: \"number\"",
							"                    },",
							"                    description: {",
							"                        type: \"string\"",
							"                    }",
							"                }",
							"            }",
							"        }",
							"    }",
							"};",
							"",
							"pm.test('Schema is valid', function () {",
							"    pm.expect(tv4.validate(jsonData, schema, false, true)).to.be.true;",
							"});"
						],
						"type": "text/javascript"
					}
				}
			],
			"request": {
				"method": "GET",
				"header": [],
				"url": {
					"raw": "{{baseUrl}}/list",
					"host": [
						"{{baseUrl}}"
					],
					"path": [
						"list"
					]
				}
			},
			"response": []
		}
	],
	"event": [
		{
			"listen": "prerequest",
			"script": {
				"type": "text/javascript",
				"exec": [
					""
				]
			}
		},
		{
			"listen": "test",
			"script": {
				"type": "text/javascript",
				"exec": [
					""
				]
			}
		}
	],
	"variable": [
		{
			"key": "baseUrl",
			"value": "http://localhost:3001"
		}
	]
}